{
  "fileServerFolder": ".",
  "fixturesFolder": "./src/fixtures",
  "integrationFolder": "./src/integration",
  "modifyObstructiveCode": false,
  "pluginsFile": "./src/plugins/index",
  "supportFile": "./src/support/index.ts",
  "video": true,
  "videosFolder": "../../dist/cypress/apps/sm-e2e/videos",
  "screenshotsFolder": "../../dist/cypress/apps/sm-e2e/screenshots",
  "chromeWebSecurity": false
}
